<?xml version="1.0" encoding="UTF-8" standalone="no"?>
<!-- Created with Inkscape (http://www.inkscape.org/) -->

<svg
   width="210mm"
   height="297mm"
   viewBox="0 0 210 297"
   version="1.1"
   id="svg5"
   xml:space="preserve"
   inkscape:version="1.2.2 (b0a8486541, 2022-12-01)"
   sodipodi:docname="icon.svg"
   xmlns:inkscape="http://www.inkscape.org/namespaces/inkscape"
   xmlns:sodipodi="http://sodipodi.sourceforge.net/DTD/sodipodi-0.dtd"
   xmlns="http://www.w3.org/2000/svg"
   xmlns:svg="http://www.w3.org/2000/svg"><sodipodi:namedview
     id="namedview7"
     pagecolor="#ffffff"
     bordercolor="#999999"
     borderopacity="1"
     inkscape:showpageshadow="0"
     inkscape:pageopacity="0"
     inkscape:pagecheckerboard="0"
     inkscape:deskcolor="#d1d1d1"
     inkscape:document-units="mm"
     showgrid="false"
     inkscape:zoom="3.3638608"
     inkscape:cx="344.39594"
     inkscape:cy="238.26788"
     inkscape:window-width="1916"
     inkscape:window-height="1040"
     inkscape:window-x="1920"
     inkscape:window-y="658"
     inkscape:window-maximized="1"
     inkscape:current-layer="layer1" /><defs
     id="defs2" /><g
     inkscape:label="Ebene 1"
     inkscape:groupmode="layer"
     id="layer1"><rect
       style="fill:#008080;fill-opacity:1;stroke-width:0.620001"
       id="rect234"
       width="45"
       height="45"
       x="72.855736"
       y="42.585354"
       inkscape:export-filename="src/ic/favicon16.png"
       inkscape:export-xdpi="9.0311117"
       inkscape:export-ydpi="9.0311117" /><g
       style="fill:none;fill-opacity:1"
       id="g994"
       transform="matrix(1.2824733,0,0,1.2824733,89.233267,53.740264)"><path
         opacity="0.15"
         d="M 20,4 H 4 v 16 h 16 z"
         fill="#000000"
         id="path982"
         style="fill:none;fill-opacity:1" /><path
         d="M 7,8 H 17 M 7,12 h 10 m -6,4 h 6 M 4,4 H 20 V 20 H 4 Z"
         stroke="#000000"
         stroke-width="1.5"
         stroke-linecap="round"
         stroke-linejoin="round"
         id="path984"
         style="fill:none;fill-opacity:1;stroke:#0b024c;stroke-width:1.29015;stroke-dasharray:none;stroke-opacity:1" /></g><path
       d="m 76.89997,52.750973 c -0.780978,0.270339 -1.63705,1.231543 -1.982483,2.222785 -0.210264,0.585734 -0.270339,1.231543 -0.270339,2.583237 0,1.561957 0.04506,1.90739 0.345433,2.553199 0.645809,1.411769 1.712145,2.16271 3.078857,2.177728 0.886111,0 1.682108,-0.315395 2.342936,-0.946185 l 0.495621,-0.480603 -0.105132,1.126412 c -0.150188,1.441806 -0.25532,1.742183 -0.856073,2.102635 -0.645809,0.390489 -1.952446,0.390489 -3.499384,0 -0.645809,-0.165208 -1.201505,-0.300377 -1.231543,-0.300377 -0.03004,0 -0.04506,0.450564 -0.01502,1.006261 l 0.04506,1.021279 0.750941,0.195245 c 0.420526,0.12015 1.501881,0.210264 2.40301,0.225282 1.817277,0.01502 2.748444,-0.210263 3.664592,-0.901129 0.540677,-0.420527 1.216524,-1.682107 1.216524,-2.327916 0,-0.811016 0.09011,-0.871092 1.351694,-0.871092 h 1.171468 l 0.06007,-2.898632 c 0.04506,-2.703387 0.06008,-2.91365 0.37547,-3.349196 0.300377,-0.420527 1.486863,-1.081355 1.65207,-0.916148 0.03004,0.04506 -0.01502,0.360452 -0.09011,0.720903 -0.09011,0.360452 -0.165207,1.186487 -0.165207,1.817277 0,2.057579 0.795998,3.499385 2.372973,4.280364 0.750941,0.360451 1.036299,0.420526 2.207767,0.420526 1.607013,0 2.372973,-0.300376 3.289121,-1.246562 l 0.600752,-0.615771 0.345433,0.510639 c 0.195245,0.300377 0.690866,0.675847 1.201505,0.931168 0.76596,0.37547 1.036299,0.420526 2.29788,0.420526 1.021274,0 1.622024,-0.07509 2.147684,-0.270339 l 0.70588,-0.285357 v -1.111393 -1.111392 l -0.63079,0.315395 c -0.87109,0.450565 -2.312887,0.555697 -2.958696,0.225283 -1.2766,-0.660829 -1.471844,-3.754705 -0.315395,-4.926173 0.360451,-0.360452 0.540677,-0.420527 1.261581,-0.420527 1.48685,0 1.38172,-0.135169 3.00376,3.904893 l 1.45682,3.634554 -0.34543,0.690865 c -0.4806,0.976223 -1.00626,1.306638 -2.01252,1.306638 h -0.81102 v 0.991242 1.00626 l 0.67585,0.09011 c 1.62203,0.25532 3.22904,-0.51064 4.04006,-1.922408 0.30038,-0.495622 4.44557,-11.324189 4.44557,-11.579509 0,-0.04506 -0.60075,-0.07509 -1.33668,-0.07509 h -1.35169 l -0.96121,2.958707 c -0.52565,1.637051 -1.03629,3.214027 -1.1264,3.499385 -0.15019,0.510639 -0.15019,0.510639 -0.16521,0.105131 -0.015,-0.240301 -0.46559,-1.802258 -1.02128,-3.484365 l -0.99124,-3.033801 -2.14769,-0.120151 c -1.74218,-0.07509 -2.312895,-0.06008 -2.958704,0.135169 -0.916148,0.270339 -1.892371,0.916148 -2.177729,1.471845 l -0.210263,0.37547 -0.780979,-0.795997 c -0.600752,-0.585735 -1.006261,-0.841054 -1.591995,-1.02128 -1.306637,-0.390489 -2.718405,-0.285358 -4.085118,0.285358 -0.210263,0.07509 -0.270339,0.03004 -0.270339,-0.210264 0,-0.285358 -0.09011,-0.315395 -0.780978,-0.315395 -0.961204,0 -1.937428,0.450564 -2.463086,1.14143 -0.225283,0.285357 -0.450565,0.51064 -0.51064,0.51064 -0.06007,0 -0.195245,-0.345433 -0.300376,-0.750941 L 85.205376,52.675879 H 83.207873 81.21037 l -0.105131,0.600753 -0.105132,0.600752 -0.540677,-0.465583 c -1.006261,-0.88611 -2.252823,-1.126411 -3.55946,-0.660828 z m 3.093877,2.117653 c 0.675847,0.345433 0.931167,1.081355 0.931167,2.703388 0.01502,1.682107 -0.270339,2.28286 -1.186487,2.583236 -1.877352,0.630791 -3.018782,-1.201505 -2.448067,-3.904893 0.315395,-1.441806 1.456825,-2.02754 2.703387,-1.381731 z m 13.33671,0.150189 c 0.600752,0.49562 0.811016,1.336674 0.735922,2.763462 -0.105132,1.772221 -0.615772,2.403011 -1.967465,2.403011 -1.306637,0 -1.817277,-0.795998 -1.817277,-2.778481 0,-2.027541 0.51064,-2.778482 1.877352,-2.778482 0.540678,0 0.826035,0.09011 1.171468,0.39049 z"
       id="path862"
       style="fill:#0b024c;stroke:#ffffff;stroke-width:0.615;stroke-dasharray:none;stroke-opacity:1" /><text
       xml:space="preserve"
       style="font-size:9.53362px;line-height:1.25;font-family:GROBOLD;-inkscape-font-specification:GROBOLD;stroke:#ffffff;stroke-width:0.536;stroke-dasharray:none;stroke-opacity:1"
       x="75.9356"
       y="75.40995"
       id="text7508"><tspan
         sodipodi:role="line"
         id="tspan7506"
         style="fill:#0b024c;fill-opacity:1;stroke:#ffffff;stroke-width:0.536;stroke-dasharray:none;stroke-opacity:1"
         x="75.9356"
         y="75.40995">Stock</tspan></text></g></svg>
